[
    {
        "title": "plus button",
        "x": 800,
        "y": 2500
    },
    {
        "title": "short button",
        "x": 400,
        "y": 2350
    },
    {
        "title": "first video",
        "x": 250,
        "y": 900
    },
    {
        "title": "next is useless here",
        "x": 0,
        "y": 0
    },
    {
        "title": "next",
        "x": 0,
        "y": 0
    },
    {
        "title": "title",
        "x": 800,
        "y": 1320
    },
    {
        "title": "post",
        "x": 800,
        "y": 2480
    }
]