[
  {
    "title": "Le Moteur E-Type Turbo",
    "description": "En 1980, Renault a introduit le moteur E-Type Turbo, le premier moteur turbocompressé de série en Europe, dans sa Renault 5 Alpine."
  },
  {
    "title": "Le moteur Mégane R.S.",
    "description": "Le moteur 2.0L turbo utilisé dans la Renault Mégane R.S. est connu sous le code 'F4Rt', et il peut produire jusqu'à 300 chevaux dans sa version la plus puissante."
  },
  {
    "title": "Le Moteur V6 PRV",
    "description": "Renault, Peugeot, et Volvo ont collaboré pour développer le moteur V6 PRV, qui a été utilisé dans des modèles comme la Renault 30 et la DeLorean DMC-12."
  },
  {
    "title": "Le Moteur E-Tech 100% électrique",
    "description": "Le moteur 100% électrique E-Tech de Renault, utilisé dans la Renault ZOE, offre une autonomie exceptionnelle, dépassant les 350 km sur une seule charge."
  },
  {
    "title": "Le Moteur Gordini Twin-Cam",
    "description": "Le moteur Gordini Twin-Cam, utilisé dans la Renault Dauphine Gordini, était en avance sur son temps avec un double arbre à cames en tête dans les années 1950."
  },
  {
    "title": "Le Diesel dCi Common Rail",
    "description": "Le moteur diesel dCi de Renault a été l'un des pionniers du système Common Rail, améliorant l'efficacité et la puissance des moteurs diesel modernes."
  },
  {
    "title": "Le Moteur F7P",
    "description": "Le moteur F7P de Renault, utilisé dans la Clio Williams, était un moteur légendaire en sport automobile grâce à ses performances et son son unique."
  },
  {
    "title": "Le Moteur E7J",
    "description": "Le moteur E7J de Renault, utilisé dans la Twingo, était connu pour sa compacité et sa fiabilité, en faisant un choix populaire pour la ville."
  },
  {
    "title": "Le Moteur H5Ft",
    "description": "Le moteur H5Ft, utilisé dans la Renault Captur, est un moteur à trois cylindres très économe en carburant, idéal pour les conducteurs soucieux de l'environnement."
  },
  {
    "title": "Le Moteur F1 V10 RS23",
    "description": "Le moteur V10 RS23 de Renault a remporté le championnat du monde de Formule 1 avec l'écurie Renault en 2005 et 2006, marquant l'histoire de la F1."
  }
]
